set terminal postscript enhanced color
set output './images/ACC.eps'
set style line 1 linecolor rgb "blue"
set autoscale
unset label
set xtic auto
set ytic auto
set xlabel "x3"
set ylabel "x6"
plot '-' notitle with lines ls 1
9.000000e+01 1.000000e+01
1.101610e+02 1.000000e+01
1.101610e+02 1.115100e+01
9.000000e+01 1.115100e+01
9.000000e+01 1.000000e+01


9.016000e+01 1.015000e+01
1.103220e+02 1.015000e+01
1.103220e+02 1.130200e+01
9.016000e+01 1.130200e+01
9.016000e+01 1.015000e+01


9.032000e+01 1.030000e+01
1.104830e+02 1.030000e+01
1.104830e+02 1.145301e+01
9.032000e+01 1.145301e+01
9.032000e+01 1.030000e+01


9.048000e+01 1.045001e+01
1.106440e+02 1.045001e+01
1.106440e+02 1.160403e+01
9.048000e+01 1.160403e+01
9.048000e+01 1.045001e+01


9.063999e+01 1.060002e+01
1.108050e+02 1.060002e+01
1.108050e+02 1.175505e+01
9.063999e+01 1.175505e+01
9.063999e+01 1.060002e+01


9.079999e+01 1.075005e+01
1.109660e+02 1.075005e+01
1.109660e+02 1.190608e+01
9.079999e+01 1.190608e+01
9.079999e+01 1.075005e+01


9.095998e+01 1.090008e+01
1.111270e+02 1.090008e+01
1.111270e+02 1.205713e+01
9.095998e+01 1.205713e+01
9.095998e+01 1.090008e+01


9.111997e+01 1.105013e+01
1.112880e+02 1.105013e+01
1.112880e+02 1.220820e+01
9.111997e+01 1.220820e+01
9.111997e+01 1.105013e+01


9.127996e+01 1.120019e+01
1.114489e+02 1.120019e+01
1.114489e+02 1.235928e+01
9.127996e+01 1.235928e+01
9.127996e+01 1.120019e+01


9.143994e+01 1.135027e+01
1.116099e+02 1.135027e+01
1.116099e+02 1.251039e+01
9.143994e+01 1.251039e+01
9.143994e+01 1.135027e+01


9.159992e+01 1.150038e+01
1.117709e+02 1.150038e+01
1.117709e+02 1.266151e+01
9.159992e+01 1.266151e+01
9.159992e+01 1.150038e+01


9.175989e+01 1.165050e+01
1.119319e+02 1.165050e+01
1.119319e+02 1.281266e+01
9.175989e+01 1.281266e+01
9.175989e+01 1.165050e+01


9.191986e+01 1.180065e+01
1.120928e+02 1.180065e+01
1.120928e+02 1.296384e+01
9.191986e+01 1.296384e+01
9.191986e+01 1.180065e+01


9.207982e+01 1.195082e+01
1.122538e+02 1.195082e+01
1.122538e+02 1.311505e+01
9.207982e+01 1.311505e+01
9.207982e+01 1.195082e+01


9.223977e+01 1.210102e+01
1.124147e+02 1.210102e+01
1.124147e+02 1.326629e+01
9.223977e+01 1.326629e+01
9.223977e+01 1.210102e+01


9.239972e+01 1.225125e+01
1.125757e+02 1.225125e+01
1.125757e+02 1.341756e+01
9.239972e+01 1.341756e+01
9.239972e+01 1.225125e+01


9.255966e+01 1.240152e+01
1.127366e+02 1.240152e+01
1.127366e+02 1.356886e+01
9.255966e+01 1.356886e+01
9.255966e+01 1.240152e+01


9.271960e+01 1.255181e+01
1.128975e+02 1.255181e+01
1.128975e+02 1.372021e+01
9.271960e+01 1.372021e+01
9.271960e+01 1.255181e+01


9.287952e+01 1.270215e+01
1.130584e+02 1.270215e+01
1.130584e+02 1.387159e+01
9.287952e+01 1.387159e+01
9.287952e+01 1.270215e+01


9.303944e+01 1.285252e+01
1.132194e+02 1.285252e+01
1.132194e+02 1.402301e+01
9.303944e+01 1.402301e+01
9.303944e+01 1.285252e+01


9.319935e+01 1.300293e+01
1.133803e+02 1.300293e+01
1.133803e+02 1.417448e+01
9.319935e+01 1.417448e+01
9.319935e+01 1.300293e+01


9.335925e+01 1.315339e+01
1.135411e+02 1.315339e+01
1.135411e+02 1.432599e+01
9.335925e+01 1.432599e+01
9.335925e+01 1.315339e+01


9.351914e+01 1.330388e+01
1.137020e+02 1.330388e+01
1.137020e+02 1.447755e+01
9.351914e+01 1.447755e+01
9.351914e+01 1.330388e+01


9.367902e+01 1.345443e+01
1.138629e+02 1.345443e+01
1.138629e+02 1.462915e+01
9.367902e+01 1.462915e+01
9.367902e+01 1.345443e+01


9.383889e+01 1.360502e+01
1.140237e+02 1.360502e+01
1.140237e+02 1.478081e+01
9.383889e+01 1.478081e+01
9.383889e+01 1.360502e+01


9.399874e+01 1.375566e+01
1.141846e+02 1.375566e+01
1.141846e+02 1.493252e+01
9.399874e+01 1.493252e+01
9.399874e+01 1.375566e+01


9.415859e+01 1.390635e+01
1.143454e+02 1.390635e+01
1.143454e+02 1.508429e+01
9.415859e+01 1.508429e+01
9.415859e+01 1.390635e+01


9.431843e+01 1.405709e+01
1.145063e+02 1.405709e+01
1.145063e+02 1.523611e+01
9.431843e+01 1.523611e+01
9.431843e+01 1.405709e+01


9.447825e+01 1.420789e+01
1.146671e+02 1.420789e+01
1.146671e+02 1.538798e+01
9.447825e+01 1.538798e+01
9.447825e+01 1.420789e+01


9.463806e+01 1.435875e+01
1.148279e+02 1.435875e+01
1.148279e+02 1.553992e+01
9.463806e+01 1.553992e+01
9.463806e+01 1.435875e+01


9.479786e+01 1.450966e+01
1.149886e+02 1.450966e+01
1.149886e+02 1.569192e+01
9.479786e+01 1.569192e+01
9.479786e+01 1.450966e+01


9.495764e+01 1.466064e+01
1.151494e+02 1.466064e+01
1.151494e+02 1.584398e+01
9.495764e+01 1.584398e+01
9.495764e+01 1.466064e+01


9.511741e+01 1.481167e+01
1.153102e+02 1.481167e+01
1.153102e+02 1.599611e+01
9.511741e+01 1.599611e+01
9.511741e+01 1.481167e+01


9.527717e+01 1.496277e+01
1.154709e+02 1.496277e+01
1.154709e+02 1.614831e+01
9.527717e+01 1.614831e+01
9.527717e+01 1.496277e+01


9.543691e+01 1.511393e+01
1.156316e+02 1.511393e+01
1.156316e+02 1.630057e+01
9.543691e+01 1.630057e+01
9.543691e+01 1.511393e+01


9.559664e+01 1.526516e+01
1.157924e+02 1.526516e+01
1.157924e+02 1.645290e+01
9.559664e+01 1.645290e+01
9.559664e+01 1.526516e+01


9.575635e+01 1.541646e+01
1.159531e+02 1.541646e+01
1.159531e+02 1.660531e+01
9.575635e+01 1.660531e+01
9.575635e+01 1.541646e+01


9.591604e+01 1.556783e+01
1.161137e+02 1.556783e+01
1.161137e+02 1.675778e+01
9.591604e+01 1.675778e+01
9.591604e+01 1.556783e+01


9.607572e+01 1.571927e+01
1.162744e+02 1.571927e+01
1.162744e+02 1.691034e+01
9.607572e+01 1.691034e+01
9.607572e+01 1.571927e+01


9.623539e+01 1.587078e+01
1.164350e+02 1.587078e+01
1.164350e+02 1.706297e+01
9.623539e+01 1.706297e+01
9.623539e+01 1.587078e+01


9.639504e+01 1.602237e+01
1.165957e+02 1.602237e+01
1.165957e+02 1.721567e+01
9.639504e+01 1.721567e+01
9.639504e+01 1.602237e+01


9.655467e+01 1.617403e+01
1.167563e+02 1.617403e+01
1.167563e+02 1.736846e+01
9.655467e+01 1.736846e+01
9.655467e+01 1.617403e+01


9.671428e+01 1.632577e+01
1.169169e+02 1.632577e+01
1.169169e+02 1.752133e+01
9.671428e+01 1.752133e+01
9.671428e+01 1.632577e+01


9.687388e+01 1.647759e+01
1.170775e+02 1.647759e+01
1.170775e+02 1.767428e+01
9.687388e+01 1.767428e+01
9.687388e+01 1.647759e+01


9.703345e+01 1.662950e+01
1.172380e+02 1.662950e+01
1.172380e+02 1.782732e+01
9.703345e+01 1.782732e+01
9.703345e+01 1.662950e+01


9.719301e+01 1.678148e+01
1.173986e+02 1.678148e+01
1.173986e+02 1.798044e+01
9.719301e+01 1.798044e+01
9.719301e+01 1.678148e+01


9.735256e+01 1.693355e+01
1.175591e+02 1.693355e+01
1.175591e+02 1.813365e+01
9.735256e+01 1.813365e+01
9.735256e+01 1.693355e+01


9.751208e+01 1.708570e+01
1.177196e+02 1.708570e+01
1.177196e+02 1.828695e+01
9.751208e+01 1.828695e+01
9.751208e+01 1.708570e+01


9.767158e+01 1.723794e+01
1.178801e+02 1.723794e+01
1.178801e+02 1.844033e+01
9.767158e+01 1.844033e+01
9.767158e+01 1.723794e+01


9.783107e+01 1.739026e+01
1.180405e+02 1.739026e+01
1.180405e+02 1.859381e+01
9.783107e+01 1.859381e+01
9.783107e+01 1.739026e+01


9.799053e+01 1.754268e+01
1.182010e+02 1.754268e+01
1.182010e+02 1.874739e+01
9.799053e+01 1.874739e+01
9.799053e+01 1.754268e+01


9.814997e+01 1.769519e+01
1.183614e+02 1.769519e+01
1.183614e+02 1.890106e+01
9.814997e+01 1.890106e+01
9.814997e+01 1.769519e+01


9.830940e+01 1.784779e+01
1.185218e+02 1.784779e+01
1.185218e+02 1.905482e+01
9.830940e+01 1.905482e+01
9.830940e+01 1.784779e+01


9.846880e+01 1.800048e+01
1.186822e+02 1.800048e+01
1.186822e+02 1.920868e+01
9.846880e+01 1.920868e+01
9.846880e+01 1.800048e+01


9.862818e+01 1.815327e+01
1.188425e+02 1.815327e+01
1.188425e+02 1.936264e+01
9.862818e+01 1.936264e+01
9.862818e+01 1.815327e+01


9.878754e+01 1.830615e+01
1.190029e+02 1.830615e+01
1.190029e+02 1.951670e+01
9.878754e+01 1.951670e+01
9.878754e+01 1.830615e+01


9.894688e+01 1.845913e+01
1.191632e+02 1.845913e+01
1.191632e+02 1.967086e+01
9.894688e+01 1.967086e+01
9.894688e+01 1.845913e+01


9.910619e+01 1.861221e+01
1.193235e+02 1.861221e+01
1.193235e+02 1.982513e+01
9.910619e+01 1.982513e+01
9.910619e+01 1.861221e+01


9.926549e+01 1.876539e+01
1.194838e+02 1.876539e+01
1.194838e+02 1.997950e+01
9.926549e+01 1.997950e+01
9.926549e+01 1.876539e+01


9.942476e+01 1.891868e+01
1.196440e+02 1.891868e+01
1.196440e+02 2.013397e+01
9.942476e+01 2.013397e+01
9.942476e+01 1.891868e+01


9.958401e+01 1.907206e+01
1.198042e+02 1.907206e+01
1.198042e+02 2.028855e+01
9.958401e+01 2.028855e+01
9.958401e+01 1.907206e+01


9.974323e+01 1.922555e+01
1.199644e+02 1.922555e+01
1.199644e+02 2.044324e+01
9.974323e+01 2.044324e+01
9.974323e+01 1.922555e+01


9.990243e+01 1.937915e+01
1.201246e+02 1.937915e+01
1.201246e+02 2.059804e+01
9.990243e+01 2.059804e+01
9.990243e+01 1.937915e+01


1.000616e+02 1.953285e+01
1.202848e+02 1.953285e+01
1.202848e+02 2.075295e+01
1.000616e+02 2.075295e+01
1.000616e+02 1.953285e+01


1.002208e+02 1.968666e+01
1.204449e+02 1.968666e+01
1.204449e+02 2.090797e+01
1.002208e+02 2.090797e+01
1.002208e+02 1.968666e+01


1.003799e+02 1.984057e+01
1.206050e+02 1.984057e+01
1.206050e+02 2.106311e+01
1.003799e+02 2.106311e+01
1.003799e+02 1.984057e+01


1.005390e+02 1.999460e+01
1.207651e+02 1.999460e+01
1.207651e+02 2.121836e+01
1.005390e+02 2.121836e+01
1.005390e+02 1.999460e+01


1.006981e+02 2.014874e+01
1.209251e+02 2.014874e+01
1.209251e+02 2.137372e+01
1.006981e+02 2.137372e+01
1.006981e+02 2.014874e+01


1.008571e+02 2.030299e+01
1.210852e+02 2.030299e+01
1.210852e+02 2.152920e+01
1.008571e+02 2.152920e+01
1.008571e+02 2.030299e+01


1.010162e+02 2.045736e+01
1.212452e+02 2.045736e+01
1.212452e+02 2.168480e+01
1.010162e+02 2.168480e+01
1.010162e+02 2.045736e+01


1.011752e+02 2.061184e+01
1.214052e+02 2.061184e+01
1.214052e+02 2.184052e+01
1.011752e+02 2.184052e+01
1.011752e+02 2.061184e+01


1.013342e+02 2.076644e+01
1.215651e+02 2.076644e+01
1.215651e+02 2.199636e+01
1.013342e+02 2.199636e+01
1.013342e+02 2.076644e+01


1.014931e+02 2.092115e+01
1.217250e+02 2.092115e+01
1.217250e+02 2.215232e+01
1.014931e+02 2.215232e+01
1.014931e+02 2.092115e+01


1.016520e+02 2.107598e+01
1.218849e+02 2.107598e+01
1.218849e+02 2.230840e+01
1.016520e+02 2.230840e+01
1.016520e+02 2.107598e+01


1.018109e+02 2.123093e+01
1.220448e+02 2.123093e+01
1.220448e+02 2.246461e+01
1.018109e+02 2.246461e+01
1.018109e+02 2.123093e+01


1.019698e+02 2.138601e+01
1.222047e+02 2.138601e+01
1.222047e+02 2.262094e+01
1.019698e+02 2.262094e+01
1.019698e+02 2.138601e+01


1.021287e+02 2.154120e+01
1.223645e+02 2.154120e+01
1.223645e+02 2.277739e+01
1.021287e+02 2.277739e+01
1.021287e+02 2.154120e+01


1.022875e+02 2.169651e+01
1.225243e+02 2.169651e+01
1.225243e+02 2.293398e+01
1.022875e+02 2.293398e+01
1.022875e+02 2.169651e+01


1.024463e+02 2.185195e+01
1.226840e+02 2.185195e+01
1.226840e+02 2.309069e+01
1.024463e+02 2.309069e+01
1.024463e+02 2.185195e+01


1.026050e+02 2.200752e+01
1.228438e+02 2.200752e+01
1.228438e+02 2.324753e+01
1.026050e+02 2.324753e+01
1.026050e+02 2.200752e+01


1.027638e+02 2.216321e+01
1.230035e+02 2.216321e+01
1.230035e+02 2.340450e+01
1.027638e+02 2.340450e+01
1.027638e+02 2.216321e+01


1.029225e+02 2.231902e+01
1.231632e+02 2.231902e+01
1.231632e+02 2.356160e+01
1.029225e+02 2.356160e+01
1.029225e+02 2.231902e+01


1.030811e+02 2.247497e+01
1.233228e+02 2.247497e+01
1.233228e+02 2.371883e+01
1.030811e+02 2.371883e+01
1.030811e+02 2.247497e+01


1.032398e+02 2.263104e+01
1.234824e+02 2.263104e+01
1.234824e+02 2.387620e+01
1.032398e+02 2.387620e+01
1.032398e+02 2.263104e+01


1.033984e+02 2.278725e+01
1.236420e+02 2.278725e+01
1.236420e+02 2.403370e+01
1.033984e+02 2.403370e+01
1.033984e+02 2.278725e+01


1.035570e+02 2.294358e+01
1.238016e+02 2.294358e+01
1.238016e+02 2.419133e+01
1.035570e+02 2.419133e+01
1.035570e+02 2.294358e+01


1.037156e+02 2.310004e+01
1.239611e+02 2.310004e+01
1.239611e+02 2.434911e+01
1.037156e+02 2.434911e+01
1.037156e+02 2.310004e+01


1.038741e+02 2.325664e+01
1.241206e+02 2.325664e+01
1.241206e+02 2.450702e+01
1.038741e+02 2.450702e+01
1.038741e+02 2.325664e+01


1.040326e+02 2.341337e+01
1.242801e+02 2.341337e+01
1.242801e+02 2.466506e+01
1.040326e+02 2.466506e+01
1.040326e+02 2.341337e+01


1.041911e+02 2.357024e+01
1.244395e+02 2.357024e+01
1.244395e+02 2.482325e+01
1.041911e+02 2.482325e+01
1.041911e+02 2.357024e+01


1.043495e+02 2.372724e+01
1.245989e+02 2.372724e+01
1.245989e+02 2.498157e+01
1.043495e+02 2.498157e+01
1.043495e+02 2.372724e+01


1.045079e+02 2.388438e+01
1.247583e+02 2.388438e+01
1.247583e+02 2.514004e+01
1.045079e+02 2.514004e+01
1.045079e+02 2.388438e+01


1.046663e+02 2.404165e+01
1.249177e+02 2.404165e+01
1.249177e+02 2.529865e+01
1.046663e+02 2.529865e+01
1.046663e+02 2.404165e+01


1.048247e+02 2.419907e+01
1.250770e+02 2.419907e+01
1.250770e+02 2.545740e+01
1.048247e+02 2.545740e+01
1.048247e+02 2.419907e+01


1.049830e+02 2.435662e+01
1.252363e+02 2.435662e+01
1.252363e+02 2.561630e+01
1.049830e+02 2.561630e+01
1.049830e+02 2.435662e+01


1.051413e+02 2.451431e+01
1.253955e+02 2.451431e+01
1.253955e+02 2.577533e+01
1.051413e+02 2.577533e+01
1.051413e+02 2.451431e+01


1.052995e+02 2.467214e+01
1.255548e+02 2.467214e+01
1.255548e+02 2.593452e+01
1.052995e+02 2.593452e+01
1.052995e+02 2.467214e+01


1.054578e+02 2.483012e+01
1.257140e+02 2.483012e+01
1.257140e+02 2.609385e+01
1.054578e+02 2.609385e+01
1.054578e+02 2.483012e+01


1.056160e+02 2.498823e+01
1.258731e+02 2.498823e+01
1.258731e+02 2.625333e+01
1.056160e+02 2.625333e+01
1.056160e+02 2.498823e+01


1.057741e+02 2.514649e+01
1.260322e+02 2.514649e+01
1.260322e+02 2.641295e+01
1.057741e+02 2.641295e+01
1.057741e+02 2.514649e+01


1.059323e+02 2.530490e+01
1.261913e+02 2.530490e+01
1.261913e+02 2.657273e+01
1.059323e+02 2.657273e+01
1.059323e+02 2.530490e+01


1.060904e+02 2.546345e+01
1.263504e+02 2.546345e+01
1.263504e+02 2.673265e+01
1.060904e+02 2.673265e+01
1.060904e+02 2.546345e+01


1.062484e+02 2.562214e+01
1.265094e+02 2.562214e+01
1.265094e+02 2.689273e+01
1.062484e+02 2.689273e+01
1.062484e+02 2.562214e+01


1.064064e+02 2.578098e+01
1.266684e+02 2.578098e+01
1.266684e+02 2.705296e+01
1.064064e+02 2.705296e+01
1.064064e+02 2.578098e+01


1.065644e+02 2.593997e+01
1.268274e+02 2.593997e+01
1.268274e+02 2.721333e+01
1.065644e+02 2.721333e+01
1.065644e+02 2.593997e+01


1.067224e+02 2.609911e+01
1.269863e+02 2.609911e+01
1.269863e+02 2.737386e+01
1.067224e+02 2.737386e+01
1.067224e+02 2.609911e+01


1.068803e+02 2.625840e+01
1.271452e+02 2.625840e+01
1.271452e+02 2.753455e+01
1.068803e+02 2.753455e+01
1.068803e+02 2.625840e+01


1.070382e+02 2.641783e+01
1.273041e+02 2.641783e+01
1.273041e+02 2.769539e+01
1.070382e+02 2.769539e+01
1.070382e+02 2.641783e+01


1.071961e+02 2.657742e+01
1.274629e+02 2.657742e+01
1.274629e+02 2.785638e+01
1.071961e+02 2.785638e+01
1.071961e+02 2.657742e+01


1.073539e+02 2.673715e+01
1.276217e+02 2.673715e+01
1.276217e+02 2.801753e+01
1.073539e+02 2.801753e+01
1.073539e+02 2.673715e+01


1.075117e+02 2.689704e+01
1.277805e+02 2.689704e+01
1.277805e+02 2.817884e+01
1.075117e+02 2.817884e+01
1.075117e+02 2.689704e+01


1.076695e+02 2.705709e+01
1.279392e+02 2.705709e+01
1.279392e+02 2.834031e+01
1.076695e+02 2.834031e+01
1.076695e+02 2.705709e+01


1.078272e+02 2.721728e+01
1.280979e+02 2.721728e+01
1.280979e+02 2.850193e+01
1.078272e+02 2.850193e+01
1.078272e+02 2.721728e+01


1.079849e+02 2.737763e+01
1.282566e+02 2.737763e+01
1.282566e+02 2.866371e+01
1.079849e+02 2.866371e+01
1.079849e+02 2.737763e+01


1.081426e+02 2.753814e+01
1.284152e+02 2.753814e+01
1.284152e+02 2.882565e+01
1.081426e+02 2.882565e+01
1.081426e+02 2.753814e+01


1.083002e+02 2.769880e+01
1.285738e+02 2.769880e+01
1.285738e+02 2.898775e+01
1.083002e+02 2.898775e+01
1.083002e+02 2.769880e+01


1.084578e+02 2.785961e+01
1.287323e+02 2.785961e+01
1.287323e+02 2.915002e+01
1.084578e+02 2.915002e+01
1.084578e+02 2.785961e+01


1.086154e+02 2.802059e+01
1.288909e+02 2.802059e+01
1.288909e+02 2.931244e+01
1.086154e+02 2.931244e+01
1.086154e+02 2.802059e+01


1.087729e+02 2.818172e+01
1.290493e+02 2.818172e+01
1.290493e+02 2.947503e+01
1.087729e+02 2.947503e+01
1.087729e+02 2.818172e+01


1.089304e+02 2.834301e+01
1.292078e+02 2.834301e+01
1.292078e+02 2.963778e+01
1.089304e+02 2.963778e+01
1.089304e+02 2.834301e+01


1.090878e+02 2.850445e+01
1.293662e+02 2.850445e+01
1.293662e+02 2.980069e+01
1.090878e+02 2.980069e+01
1.090878e+02 2.850445e+01


1.092452e+02 2.866606e+01
1.295246e+02 2.866606e+01
1.295246e+02 2.996377e+01
1.092452e+02 2.996377e+01
1.092452e+02 2.866606e+01


1.094026e+02 2.882783e+01
1.296829e+02 2.882783e+01
1.296829e+02 3.012702e+01
1.094026e+02 3.012702e+01
1.094026e+02 2.882783e+01


1.095599e+02 2.898976e+01
1.298412e+02 2.898976e+01
1.298412e+02 3.029043e+01
1.095599e+02 3.029043e+01
1.095599e+02 2.898976e+01


1.097172e+02 2.915185e+01
1.299995e+02 2.915185e+01
1.299995e+02 3.045400e+01
1.097172e+02 3.045400e+01
1.097172e+02 2.915185e+01


1.098745e+02 2.931410e+01
1.301577e+02 2.931410e+01
1.301577e+02 3.061775e+01
1.098745e+02 3.061775e+01
1.098745e+02 2.931410e+01


1.100317e+02 2.947652e+01
1.303159e+02 2.947652e+01
1.303159e+02 3.078166e+01
1.100317e+02 3.078166e+01
1.100317e+02 2.947652e+01


1.101889e+02 2.963910e+01
1.304741e+02 2.963910e+01
1.304741e+02 3.094574e+01
1.101889e+02 3.094574e+01
1.101889e+02 2.963910e+01


1.103461e+02 2.980184e+01
1.306322e+02 2.980184e+01
1.306322e+02 3.110999e+01
1.103461e+02 3.110999e+01
1.103461e+02 2.980184e+01


1.105032e+02 2.996475e+01
1.307903e+02 2.996475e+01
1.307903e+02 3.127440e+01
1.105032e+02 3.127440e+01
1.105032e+02 2.996475e+01


1.106603e+02 3.012782e+01
1.309483e+02 3.012782e+01
1.309483e+02 3.143899e+01
1.106603e+02 3.143899e+01
1.106603e+02 3.012782e+01


1.108173e+02 3.029106e+01
1.311063e+02 3.029106e+01
1.311063e+02 3.160375e+01
1.108173e+02 3.160375e+01
1.108173e+02 3.029106e+01


1.109743e+02 3.045446e+01
1.312643e+02 3.045446e+01
1.312643e+02 3.176868e+01
1.109743e+02 3.176868e+01
1.109743e+02 3.045446e+01


1.111313e+02 3.061803e+01
1.314222e+02 3.061803e+01
1.314222e+02 3.193378e+01
1.111313e+02 3.193378e+01
1.111313e+02 3.061803e+01


1.112883e+02 3.078177e+01
1.315801e+02 3.078177e+01
1.315801e+02 3.209906e+01
1.112883e+02 3.209906e+01
1.112883e+02 3.078177e+01


1.114451e+02 3.094568e+01
1.317380e+02 3.094568e+01
1.317380e+02 3.226450e+01
1.114451e+02 3.226450e+01
1.114451e+02 3.094568e+01


1.116020e+02 3.110975e+01
1.318958e+02 3.110975e+01
1.318958e+02 3.243013e+01
1.116020e+02 3.243013e+01
1.116020e+02 3.110975e+01


1.117588e+02 3.127400e+01
1.320536e+02 3.127400e+01
1.320536e+02 3.259592e+01
1.117588e+02 3.259592e+01
1.117588e+02 3.127400e+01


1.119156e+02 3.143841e+01
1.322113e+02 3.143841e+01
1.322113e+02 3.276189e+01
1.119156e+02 3.276189e+01
1.119156e+02 3.143841e+01


1.120724e+02 3.160299e+01
1.323690e+02 3.160299e+01
1.323690e+02 3.292804e+01
1.120724e+02 3.292804e+01
1.120724e+02 3.160299e+01


1.122291e+02 3.176775e+01
1.325267e+02 3.176775e+01
1.325267e+02 3.309436e+01
1.122291e+02 3.309436e+01
1.122291e+02 3.176775e+01


1.123857e+02 3.193268e+01
1.326843e+02 3.193268e+01
1.326843e+02 3.326085e+01
1.123857e+02 3.326085e+01
1.123857e+02 3.193268e+01


1.125423e+02 3.209777e+01
1.328419e+02 3.209777e+01
1.328419e+02 3.342753e+01
1.125423e+02 3.342753e+01
1.125423e+02 3.209777e+01


1.126989e+02 3.226304e+01
1.329994e+02 3.226304e+01
1.329994e+02 3.359438e+01
1.126989e+02 3.359438e+01
1.126989e+02 3.226304e+01


1.128555e+02 3.242849e+01
1.331570e+02 3.242849e+01
1.331570e+02 3.376141e+01
1.128555e+02 3.376141e+01
1.128555e+02 3.242849e+01


1.130120e+02 3.259410e+01
1.333144e+02 3.259410e+01
1.333144e+02 3.392861e+01
1.130120e+02 3.392861e+01
1.130120e+02 3.259410e+01


1.131685e+02 3.275989e+01
1.334719e+02 3.275989e+01
1.334719e+02 3.409600e+01
1.131685e+02 3.409600e+01
1.131685e+02 3.275989e+01


1.133249e+02 3.292585e+01
1.336292e+02 3.292585e+01
1.336292e+02 3.426357e+01
1.133249e+02 3.426357e+01
1.133249e+02 3.292585e+01


1.134813e+02 3.309199e+01
1.337866e+02 3.309199e+01
1.337866e+02 3.443131e+01
1.134813e+02 3.443131e+01
1.134813e+02 3.309199e+01


1.136376e+02 3.325831e+01
1.339439e+02 3.325831e+01
1.339439e+02 3.459924e+01
1.136376e+02 3.459924e+01
1.136376e+02 3.325831e+01


1.137940e+02 3.342480e+01
1.341012e+02 3.342480e+01
1.341012e+02 3.476734e+01
1.137940e+02 3.476734e+01
1.137940e+02 3.342480e+01


1.139502e+02 3.359146e+01
1.342584e+02 3.359146e+01
1.342584e+02 3.493563e+01
1.139502e+02 3.493563e+01
1.139502e+02 3.359146e+01


1.141065e+02 3.375830e+01
1.344156e+02 3.375830e+01
1.344156e+02 3.510410e+01
1.141065e+02 3.510410e+01
1.141065e+02 3.375830e+01


1.142627e+02 3.392532e+01
1.345728e+02 3.392532e+01
1.345728e+02 3.527275e+01
1.142627e+02 3.527275e+01
1.142627e+02 3.392532e+01


1.144188e+02 3.409252e+01
1.347299e+02 3.409252e+01
1.347299e+02 3.544158e+01
1.144188e+02 3.544158e+01
1.144188e+02 3.409252e+01


1.145749e+02 3.425989e+01
1.348869e+02 3.425989e+01
1.348869e+02 3.561060e+01
1.145749e+02 3.561060e+01
1.145749e+02 3.425989e+01


1.147310e+02 3.442744e+01
1.350440e+02 3.442744e+01
1.350440e+02 3.577980e+01
1.147310e+02 3.577980e+01
1.147310e+02 3.442744e+01


1.148870e+02 3.459517e+01
1.352010e+02 3.459517e+01
1.352010e+02 3.594919e+01
1.148870e+02 3.594919e+01
1.148870e+02 3.459517e+01


1.150430e+02 3.476308e+01
1.353579e+02 3.476308e+01
1.353579e+02 3.611875e+01
1.150430e+02 3.611875e+01
1.150430e+02 3.476308e+01


1.151990e+02 3.493117e+01
1.355148e+02 3.493117e+01
1.355148e+02 3.628851e+01
1.151990e+02 3.628851e+01
1.151990e+02 3.493117e+01


1.153549e+02 3.509944e+01
1.356717e+02 3.509944e+01
1.356717e+02 3.645844e+01
1.153549e+02 3.645844e+01
1.153549e+02 3.509944e+01


1.155107e+02 3.526789e+01
1.358285e+02 3.526789e+01
1.358285e+02 3.662857e+01
1.155107e+02 3.662857e+01
1.155107e+02 3.526789e+01


1.156666e+02 3.543652e+01
1.359853e+02 3.543652e+01
1.359853e+02 3.679888e+01
1.156666e+02 3.679888e+01
1.156666e+02 3.543652e+01


1.158224e+02 3.560533e+01
1.361420e+02 3.560533e+01
1.361420e+02 3.696937e+01
1.158224e+02 3.696937e+01
1.158224e+02 3.560533e+01


1.159781e+02 3.577432e+01
1.362987e+02 3.577432e+01
1.362987e+02 3.714006e+01
1.159781e+02 3.714006e+01
1.159781e+02 3.577432e+01


1.161338e+02 3.594349e+01
1.364554e+02 3.594349e+01
1.364554e+02 3.731093e+01
1.161338e+02 3.731093e+01
1.161338e+02 3.594349e+01


1.162895e+02 3.611285e+01
1.366120e+02 3.611285e+01
1.366120e+02 3.748198e+01
1.162895e+02 3.748198e+01
1.162895e+02 3.611285e+01


1.164451e+02 3.628239e+01
1.367686e+02 3.628239e+01
1.367686e+02 3.765323e+01
1.164451e+02 3.765323e+01
1.164451e+02 3.628239e+01


1.166007e+02 3.645211e+01
1.369251e+02 3.645211e+01
1.369251e+02 3.782466e+01
1.166007e+02 3.782466e+01
1.166007e+02 3.645211e+01


1.167562e+02 3.662202e+01
1.370816e+02 3.662202e+01
1.370816e+02 3.799628e+01
1.167562e+02 3.799628e+01
1.167562e+02 3.662202e+01


1.169117e+02 3.679211e+01
1.372381e+02 3.679211e+01
1.372381e+02 3.816809e+01
1.169117e+02 3.816809e+01
1.169117e+02 3.679211e+01


1.170672e+02 3.696238e+01
1.373945e+02 3.696238e+01
1.373945e+02 3.834009e+01
1.170672e+02 3.834009e+01
1.170672e+02 3.696238e+01


1.172226e+02 3.713284e+01
1.375509e+02 3.713284e+01
1.375509e+02 3.851228e+01
1.172226e+02 3.851228e+01
1.172226e+02 3.713284e+01


1.173779e+02 3.730348e+01
1.377072e+02 3.730348e+01
1.377072e+02 3.868466e+01
1.173779e+02 3.868466e+01
1.173779e+02 3.730348e+01


1.175333e+02 3.747431e+01
1.378635e+02 3.747431e+01
1.378635e+02 3.885723e+01
1.175333e+02 3.885723e+01
1.175333e+02 3.747431e+01


1.176886e+02 3.764532e+01
1.380197e+02 3.764532e+01
1.380197e+02 3.903000e+01
1.176886e+02 3.903000e+01
1.176886e+02 3.764532e+01


1.178438e+02 3.781652e+01
1.381759e+02 3.781652e+01
1.381759e+02 3.920295e+01
1.178438e+02 3.920295e+01
1.178438e+02 3.781652e+01


1.179990e+02 3.798790e+01
1.383321e+02 3.798790e+01
1.383321e+02 3.937609e+01
1.179990e+02 3.937609e+01
1.179990e+02 3.798790e+01


1.181542e+02 3.815947e+01
1.384882e+02 3.815947e+01
1.384882e+02 3.954943e+01
1.181542e+02 3.954943e+01
1.181542e+02 3.815947e+01


1.183093e+02 3.833123e+01
1.386443e+02 3.833123e+01
1.386443e+02 3.972295e+01
1.183093e+02 3.972295e+01
1.183093e+02 3.833123e+01


1.184643e+02 3.850317e+01
1.388003e+02 3.850317e+01
1.388003e+02 3.989667e+01
1.184643e+02 3.989667e+01
1.184643e+02 3.850317e+01


1.186194e+02 3.867530e+01
1.389563e+02 3.867530e+01
1.389563e+02 4.007058e+01
1.186194e+02 4.007058e+01
1.186194e+02 3.867530e+01


1.187744e+02 3.884762e+01
1.391122e+02 3.884762e+01
1.391122e+02 4.024469e+01
1.187744e+02 4.024469e+01
1.187744e+02 3.884762e+01


1.189293e+02 3.902013e+01
1.392681e+02 3.902013e+01
1.392681e+02 4.041899e+01
1.189293e+02 4.041899e+01
1.189293e+02 3.902013e+01


1.190842e+02 3.919283e+01
1.394240e+02 3.919283e+01
1.394240e+02 4.059348e+01
1.190842e+02 4.059348e+01
1.190842e+02 3.919283e+01


1.192391e+02 3.936571e+01
1.395798e+02 3.936571e+01
1.395798e+02 4.076817e+01
1.192391e+02 4.076817e+01
1.192391e+02 3.936571e+01


1.193939e+02 3.953878e+01
1.397356e+02 3.953878e+01
1.397356e+02 4.094305e+01
1.193939e+02 4.094305e+01
1.193939e+02 3.953878e+01


1.195487e+02 3.971204e+01
1.398913e+02 3.971204e+01
1.398913e+02 4.111812e+01
1.195487e+02 4.111812e+01
1.195487e+02 3.971204e+01


1.197034e+02 3.988549e+01
1.400470e+02 3.988549e+01
1.400470e+02 4.129339e+01
1.197034e+02 4.129339e+01
1.197034e+02 3.988549e+01


1.198581e+02 4.005913e+01
1.402026e+02 4.005913e+01
1.402026e+02 4.146885e+01
1.198581e+02 4.146885e+01
1.198581e+02 4.005913e+01


1.200127e+02 4.023296e+01
1.403582e+02 4.023296e+01
1.403582e+02 4.164451e+01
1.200127e+02 4.164451e+01
1.200127e+02 4.023296e+01


1.201673e+02 4.040698e+01
1.405138e+02 4.040698e+01
1.405138e+02 4.182037e+01
1.201673e+02 4.182037e+01
1.201673e+02 4.040698e+01


1.203219e+02 4.058120e+01
1.406693e+02 4.058120e+01
1.406693e+02 4.199642e+01
1.203219e+02 4.199642e+01
1.203219e+02 4.058120e+01


1.204764e+02 4.075560e+01
1.408247e+02 4.075560e+01
1.408247e+02 4.217267e+01
1.204764e+02 4.217267e+01
1.204764e+02 4.075560e+01


1.206308e+02 4.093019e+01
1.409802e+02 4.093019e+01
1.409802e+02 4.234911e+01
1.206308e+02 4.234911e+01
1.206308e+02 4.093019e+01


1.207853e+02 4.110497e+01
1.411355e+02 4.110497e+01
1.411355e+02 4.252575e+01
1.207853e+02 4.252575e+01
1.207853e+02 4.110497e+01


1.209396e+02 4.127995e+01
1.412909e+02 4.127995e+01
1.412909e+02 4.270258e+01
1.209396e+02 4.270258e+01
1.209396e+02 4.127995e+01


1.210940e+02 4.145511e+01
1.414462e+02 4.145511e+01
1.414462e+02 4.287962e+01
1.210940e+02 4.287962e+01
1.210940e+02 4.145511e+01


1.212483e+02 4.163047e+01
1.416014e+02 4.163047e+01
1.416014e+02 4.305685e+01
1.212483e+02 4.305685e+01
1.212483e+02 4.163047e+01


1.214025e+02 4.180602e+01
1.417566e+02 4.180602e+01
1.417566e+02 4.323428e+01
1.214025e+02 4.323428e+01
1.214025e+02 4.180602e+01


e
